player,encounter_ID,pokemon_name,CP,message_type,catch,ball_type,razz_berry,level,
Nail,,Charmander,10,No Message,1,Poke Ball,0,,
Nail,,Ledyba,10,No Message,1,Poke Ball,0,,
Nail,,Spinarak,10,No Message,1,Poke Ball,0,,
Nail,,Gligar,71,No Message,1,Poke Ball,0,,
Nail,,Hoothoot,25,No Message,1,Poke Ball,0,,
Nail,,Arcanine,,No Message,0,Poke Ball,0,,
Nail,,Marill,27,No Message,1,Poke Ball,0,,
Nail,871,Swinub,59,No Message,0,Poke Ball,0,,
Nail,871,Swinub,59,No Message,1,Poke Ball,0,,
Nail,,Hoothoot,10,No Message,1,Poke Ball,0,, 
Nail,,Venonat,56,No Message,1,Poke Ball,0,,
Wenbo,w001,Spearow,,No Message,0,Poke Ball,0,,
Wenbo,w001,Spearow,,No Message,1,Poke Ball,0,,
Nail,,Meowth,23,Great,1,Poke Ball,0,,
Nail,,Paras,56,Great,1,Poke Ball,0,,
Nail,,Murkrow,18,Excellent,1,Poke Ball,0,,
Nail,,Krabby,16,Great,1,Poke Ball,0,,
Nail,,Krabby,91,Great,1,Poke Ball,0,,
Nail,,Wooper,33,Nice,1,Poke Ball,0,,
Nail,,Sableye,53,Great,1,Poke Ball,0,,
Nail,,Spinarak,73,No Message,1,Poke Ball,0,,
Asghar,,Marill,,No Message,1,Poke Ball,0,,
Nail,873,Ledyba,102,Great,0,Poke Ball,0,,
Nail,873,Ledyba,102,No Message,1,Poke Ball,0,,
Nail,,Horsea,12,No Message,1,Poke Ball,0,,
Nail,,Staryu,57,Great,1,Poke Ball,0,,
Nail,,Magikarp,12,No Message,1,Poke Ball,0,,
Nail,,Natu,11,No Message,1,Poke Ball,0,,
Nail,,Rattata,35,No Message,1,Poke Ball,0,,
Huixiang,,Marill,,Great,1,Great Ball,0,5,
Huixiang,,Spinarak,,Great,1,Poke Ball,,16,
Huixiang,,Horsea,,Nice,1,Poke Ball,,3,
Huixiang,,Wooper,,No Message,0,Poke Ball,,11,
Huixiang,,Wooper,,Nice,1,Poke Ball,,11,
Huixiang,,Spinarak,,No Message,0,Poke Ball,,13,
Huixiang,,Spinarak,,Nice,1,Poke Ball,,13,
Huixiang,,Paras,,Nice,1,Poke Ball,,21,
Nail,874,Ledyba,,No Message,0,Poke Ball,0,,
Nail,874,Ledyba,,Nice,1,Poke Ball,0,,
Nail,,Pidgey,38,No Message,1,Poke Ball,0,,
Nail,,Caterpie,13,No Message,1,Poke Ball,0,,
Nail,,Ledyba,57,No Message,1,Poke Ball,0,,
Nail,,Natu,89,Nice,1,Poke Ball,0,,
Nail,,Pidgey,24,No Message,1,Poke Ball,0,,
Nail,,Snubbull,41,Excellent,1,Poke Ball,0,,
Nail,,Spearow,10,No Message,1,Poke Ball,0,,
Nail,,Hoothoot,39,No Message,1,Poke Ball,0,,
Nail,,Spinarak,113,Great,1,Poke Ball,0,,
Nail,,Spearow,57,No Message,1,Poke Ball,0,,
Nail,,Sentret,58,No Message,1,Poke Ball,0,,
Nail,,Venonat,77,No Message,1,Poke Ball,0,,
Nail,875,Pidgey,85,No Message,0,Poke Ball,0,,
Nail,875,Pidgey,85,No Message,1,Poke Ball,0,,
Nail,,Krabby,173,Great,1,Poke Ball,0,,
Nail,,Clefairy,42,No Message,1,Poke Ball,0,,
Nail,876,Bayleef,156,No Message,0,Poke Ball,0,,
Nail,876,Bayleef,156,No Message,0,Poke Ball,0,,
Nail,876,Bayleef,156,Great,0,Poke Ball,0,,
Nail,876,Bayleef,156,Nice,0,Poke Ball,0,,
Nail,876,Bayleef,156,No Message,0,Poke Ball,0,,
Nail,876,Bayleef,156,Nice,0,Poke Ball,0,,
Nail,876,Bayleef,156,No Message,0,Poke Ball,1,,
Nail,876,Bayleef,156,No Message,0,Poke Ball,0,,
Nail,876,Bayleef,156,Nice,0,Poke Ball,0,,
Nail,,Spearow,130,No Message,1,Poke Ball,0,,
Asghar,99911,Pidgey,,Great,1,Poke Ball,0,,
Asghar,99912,Abra,,No Message,,Poke Ball,0,,
Wenbo,w002,Oddish,99,No Message,1,Poke Ball,0,,
Asghar,99913,Pidgey,,No Message,0,Poke Ball,0,,
Asghar,99914,Chindou,,No Message,1,Poke Ball,0,,
Asghar,99915,Murkrow,,No Message,0,Poke Ball,0,,
Asghar,99915,Murkrow,,No Message,0,Poke Ball,0,,
Asghar,99916,Pidgey,,No Message,0,Poke Ball,0,,
Asghar,99916,Pidgey,,No Message,0,Poke Ball,0,,
Asghar,99917,Rattata,,No Message,1,Poke Ball,0,,
Asghar,99918,Sentret,,No Message,1,Poke Ball,0,,
Asghar,99919,Natu,,No Message,0,Poke Ball,0,,
Asghar,99919,Natu,,No Message,0,Poke Ball,0,,
Asghar,99919,Natu,,No Message,0,Poke Ball,0,,
Asghar,99919,Natu,,No Message,0,Poke Ball,0,,
Asghar,99919,Natu,,No Message,0,Poke Ball,0,,
Asghar,99919,Natu,,No Message,0,Poke Ball,0,,
Asghar,99919,Natu,,No Message,1,Poke Ball,0,,
Asghar,99920,Natu,,No Message,1,Poke Ball,0,,
Asghar,99921,Sentret,,No Message,1,Poke Ball,0,,
Asghar,99922,Marill,,Nice,1,Poke Ball,0,,
Asghar,99923,Voltorb,,No Message,1,Poke Ball,0,,
Asghar,99924,Sentret,,Nice,1,Poke Ball,0,,
Asghar,99925,Natu,,No Message,1,Poke Ball,1,,
Asghar,99926,Natu,,No Message,1,Poke Ball,0,,
Asghar,99927,Pidgey,,Great,1,Poke Ball,0,,
Asghar,99928,Pidgey,,Nice,1,Poke Ball,0,,
Asghar,99929,Pidgey,,No Message,0,Poke Ball,0,,
Asghar,99929,Pidgey,,No Message,1,Poke Ball,0,,
Asghar,99930,Pidgey,,No Message,1,Poke Ball,1,,
Asghar,99931,Rattata,,No Message,1,Poke Ball,0,,
Asghar,99932,Natu,,No Message,1,Poke Ball,0,,
Asghar,99933,Nidoran,,No Message,0,Poke Ball,0,,
Asghar,99933,Nidoran,,No Message,1,Poke Ball,0,,
Asghar,99934,Pidgey,,Nice,1,Poke Ball,0,,
Asghar,99935,Clefairy,,Nice,1,Poke Ball,0,,
Asghar,99936,Sneasel,,Great,1,Poke Ball,1,,
Asghar,99937,Nidoran,,No Message,1,Poke Ball,0,,
Asghar,99938,Teddiursa,,No Message,0,Poke Ball,0,,
Asghar,99938,Teddiursa,,No Message,1,Poke Ball,0,,
Clayton,CB01,Sneasel,182,No Message,0,Poke Ball,0,,
Clayton,CB01,Sneasel,182,No Message,1,Poke Ball,0,,
Clayton,CB02,Sabley,126,No Message,0,Poke Ball,0,,
Clayton,CB02,Sabley,126,No Message,0,Poke Ball,0,,
Clayton,CB02,Sabley,126,No Message,0,Poke Ball,0,,
Clayton,CB02,Sabley,126,No Message,1,Poke Ball,1,,
Clayton,CB03,Pidgey,53,No Message,1,Poke Ball,0,,
Clayton,CB04,Eevee,284,No Message,1,Poke Ball,0,,
Clayton,CB04,Eevee,204,,0,Poke Ball,0,,
Clayton,CB05,Eevee,204,No Message,0,Poke Ball,0,,
Clayton,CB06,Golbat,222,No Message,0,Poke Ball,0,,
Clayton,CB07,Golbat,222,No Message,0,Poke Ball,0,,
Clayton,CB06,Ledyba,166,No Message,0,Poke Ball,0,,
Clayton,CB07,Ledyba,166,No Message,1,Poke Ball,0,,
Clayton,CB08,Venonat,283,No Message,1,Poke Ball,0,,
Clayton,CB09,Clefairy,127,No Message,1,Poke Ball,0,,
Clayton,CB10,Mankey,117,No Message,1,Poke Ball,0,,
Clayton,CB11,Phanpy,47,No Message,1,Poke Ball,0,,
Clayton,CB12,Hoothoot,10,No Message,1,Poke Ball,0,,
Wenbo,w003,Mankey,307,Nice,1,Poke Ball,1,,
Huixiang,HS001,Pidgey,118,No Message,1,Poke Ball,,,
Huixiang,HS002,Natu,10,Great,1,Poke Ball,,,
Huixiang,HS003,Eevee,290,No Message,1,Poke Ball,,,
Huixiang,HS004,Poliwag,173,Great,0,Poke Ball,,,
Huixiang,HS004,Poliwag,173,No Message,1,Poke Ball,,,
Huixiang,HS005,Spearow,243,Great,0,Poke Ball,,,
Huixiang,HS005,Spearow,243,No Message,1,Poke Ball,,,
Huixiang,HS006,Nidoran,380,Nice,1,Poke Ball,,,
Wenbo,w004,Ekans,219,No Message,0,Poke Ball,1,,
Wenbo,w004,Ekans,219,No Message,1,Poke Ball,1,,
Wenbo,w005,Natu,610,No Message,0,Poke Ball,1,,
Wenbo,w005,Natu,610,No Message,0,Poke Ball,1,,
Wenbo,w005,Natu,610,No Message,0,Poke Ball,1,,
Wenbo,w006,Goldeen,756,No Message,1,Poke Ball,1,,
Huixiang,HS007,Staryu,557,Nice,1,Poke Ball,0,,
Huixiang,HS008,Spinarak,124,No Message,0,Poke Ball,0,,
Huixiang,HS008,Spinarak,124,No Message,1,Poke Ball,0,,
Huixiang,HS009,Pidgey,22,Nice,1,Poke Ball,0,,
Wenbo,w007,weedle,169,No Message,0,Poke Ball,1,,
Wenbo,w007,,,Nice,1,Poke Ball,1,,
Wenbo,w008,sentret,240,No Message,1,Poke Ball,1,,
Huixiang,HS010,Pidgetto,228,No Message,1,Poke Ball,1,,
Wenbo,w009,spinarak,203,No Message,0,Poke Ball,1,,
Wenbo,w009,spinarak,203,No Message,0,Poke Ball,1,,
Wenbo,w009,spinarak,203,No Message,1,Poke Ball,1,,
Wenbo,w010,hoppip,340,Nice,1,Poke Ball,1,,
Wenbo,w011,pidgey,275,No Message,1,Poke Ball,1,,
Huixiang,HS011,Misdreavus,822,No Message,1,Poke Ball,0,,
Huixiang,HS011,Misdreavus,822,Nice,0,Poke Ball,0,,
Huixiang,HS012,Pidgey,288,Nice,1,Poke Ball,0,,
Huixiang,HS013,Carterpie,132,Nice,1,Poke Ball,0,,
Huixiang,HS014,Eevee,12,Nice,1,Poke Ball,0,,
Huixiang,HS015,Carterpie,28,Nice,1,Poke Ball,0,,
Huixiang,HS016,Venonat,188,Nice,0,Great Ball,0,,
Huixiang,HS016,Venonat,188,Great,1,Great Ball,0,,
Huixiang,HS017,Nidoran,141,Nice,1,Poke Ball,0,,
Huixiang,HS018,Wooper,93,Nice,1,Poke Ball,0,,
Huixiang,HS019,Hoothoot,373,Nice,1,Poke Ball,0,,
Huixiang,HS020,Chikorita,92,Nice,1,Poke Ball,1,,
Huixiang,HS021,Pidgey,215,Nice,1,Poke Ball,0,,
Huixiang,HS022,Nidoran,229,Nice,1,Poke Ball,0,,
Huixiang,HS023,Marill,170,Great,0,Poke Ball,0,,
Huixiang,HS023,Marill,170,No Message,1,Poke Ball,0,,
Huixiang,HS024,Exeggcute,233,No Message,1,Poke Ball,1,,
Huixiang,HS025,Spearow,96,No Message,0,Poke Ball,1,,
Wenbo,w012,pidgey,204,No Message,1,Poke Ball,1,,
Wenbo,w013,venonat,584,Nice,1,Poke Ball,1,,
Wenbo,w014,pidgey,124,No Message,1,Poke Ball,1,,
Wenbo,w015,natu,82,Nice,1,Poke Ball,1,,
Wenbo,w016,natu,644,No Message,1,Poke Ball,1,,
Wenbo,w017,hoppip,212,No Message,1,Poke Ball,1,,
Wenbo,w018,krabby,904,No Message,1,Poke Ball,1,,
Wenbo,w019,weedle,81,No Message,1,Poke Ball,1,,
Wenbo,w020,staryu,357,No Message,1,Poke Ball,1,,
Wenbo,w021,abra,525,Nice,1,Great Ball,0,,
Wenbo,w022,magicarp,59,Nice,1,Great Ball,0,,
Wenbo,w023,magicarp,88,Nice,1,Great Ball,0,,
Wenbo,w024,weedle,51,No Message,1,Great Ball,0,,
Wenbo,w025,natu,119,Great,1,Great Ball,0,,
Wenbo,w026,paras,308,No Message,1,Great Ball,0,,
Wenbo,w027,venonat,232,No Message,1,Great Ball,0,,
Wenbo,w028,venonat,11,Nice,1,Great Ball,0,,
Wenbo,w029,Natu,297,No Message,1,Great Ball,0,,
Wenbo,w030,Natu,525,No Message,0,Great Ball,0,,
Wenbo,w030,natu,525,Nice,0,Great Ball,0,,
Wenbo,w031,spinarak,444,Great,1,Great Ball,0,,
Wenbo,w032,spinarak,333,Nice,0,Great Ball,0,,
Wenbo,w032,spinarak,333,No Message,1,Great Ball,0,,
Wenbo,w033,natu,301,No Message,0,Great Ball,0,,
Wenbo,w033,natu,301,Nice,1,Great Ball,0,,
Wenbo,w034,pidgey,265,No Message,1,Great Ball,0,,
Wenbo,w035,pidgey,166,Nice,1,Great Ball,0,,
Wenbo,w036,natu,322,No Message,1,Great Ball,0,,
Wenbo,w037,spinarak,479,No Message,1,Great Ball,0,,
Wenbo,w038,murkrow,97,Nice,1,Great Ball,0,,
Wenbo,w039,Golbat,679,Great,1,Great Ball,0,,
Huixiang,hs026,Nidoran,294,Nice,1,Poke Ball,1,,
Huixiang,hs027,Clefairy,315,Nice,0,Poke Ball,1,,
Huixiang,hs027,Clefairy,315,Nice,1,Poke Ball,1,,
Huixiang,hs028,Skiploom,402,Great,1,Poke Ball,1,,
Huixiang,hs029,Spearow,75,Nice,1,Poke Ball,1,,
Huixiang,hs030,paras,102,Nice,1,Poke Ball,1,,
Huixiang,hs031,natu,403,Nice,1,Poke Ball,1,,