Player,pokemon_name,encounter_ID,CP,level,num_escapes,catch,message_type,Poke Ball Type,razz_berry,num_ball_rolls,
Nail,Charmander,,10,,,1,No Message,Poke Ball,0,,
Nail,Ledyba,,10,,,1,No Message,Poke Ball,0,,
Nail,Spinarak,,10,,,1,No Message,Poke Ball,0,,
Nail,Gligar,,71,,,1,No Message,Poke Ball,0,,
Nail,Hoothoot,,25,,,1,No Message,Poke Ball,0,,
Nail,Arcanine,,,,,0,No Message,Poke Ball,0,,
Nail,Marill,,27,,,1,No Message,Poke Ball,0,,
Nail,Swinub,871,59,,,0,No Message,Poke Ball,0,,
Nail,Swinub,871,59,,,1,No Message,Poke Ball,0,,
Nail,Hoothoot,,10,,,1,No Message,Poke Ball,0,, 
Nail,Venonat,,56,,,1,No Message,Poke Ball,0,,
Wenbo,Spearow,w001,,,,0,No Message,Poke Ball,0,,
Wenbo,Spearow,w001,,,,1,No Message,Poke Ball,0,,
Nail,Meowth,,23,,,1,Great,Poke Ball,0,,
Nail,Paras,,56,,,1,Great,Poke Ball,0,,
Nail,Murkrow,,18,,,1,Excellent,Poke Ball,0,,
Nail,Krabby,,16,,,1,Great,Poke Ball,0,,
Nail,Krabby,,91,,,1,Great,Poke Ball,0,,
Nail,Wooper,,33,,,1,Nice,Poke Ball,0,,
Nail,Sableye,,53,,,1,Great,Poke Ball,0,,
Nail,Spinarak,,73,,,1,No Message,Poke Ball,0,,
Asghar,Marill,,,,,1,No Message,Poke Ball,0,,
Nail,Ledyba,873,102,,,0,Great,Poke Ball,0,,
Nail,Ledyba,873,102,,,1,No Message,Poke Ball,0,,
Nail,Horsea,,12,,,1,No Message,Poke Ball,0,,
Nail,Staryu,,57,,,1,Great,Poke Ball,0,,
Nail,Magikarp,,12,,,1,No Message,Poke Ball,0,,
Nail,Natu,,11,,,1,No Message,Poke Ball,0,,
Nail,Rattata,,35,,,1,No Message,Poke Ball,0,,
Huixiang,Marill,,,5,0,1,Great,Great Ball,0,,
Huixiang,Spinarak,,,16,0,1,Great,Poke Ball,,,
Huixiang,Horsea,,,3,0,1,Nice,Poke Ball,,,
Huixiang,Wooper,,,11,1,1,Nice,Poke Ball,,,
Huixiang,Spinarak,,,13,1,1,Nice,Poke Ball,,,
Huixiang,Paras,,,21,0,1,Nice,Poke Ball,,,
Nail,Ledyba,874,,,,0,No Message,Poke Ball,0,,
Nail,Ledyba,874,,,,1,Nice,Poke Ball,0,,
Nail,Pidgey,,38,,,1,No Message,Poke Ball,0,,
Nail,Caterpie,,13,,,1,No Message,Poke Ball,0,,
Nail,Ledyba,,57,,,1,No Message,Poke Ball,0,,
Nail,Natu,,89,,,1,Nice,Poke Ball,0,,
Nail,Pidgey,,24,,,1,No Message,Poke Ball,0,,
Nail,Snubbull,,41,,,1,Excellent,Poke Ball,0,,
Nail,Spearow,,10,,,1,No Message,Poke Ball,0,,
Nail,Hoothoot,,39,,,1,No Message,Poke Ball,0,,
Nail,Spinarak,,113,,,1,Great,Poke Ball,0,,
Nail,Spearow,,57,,,1,No Message,Poke Ball,0,,
Nail,Sentret,,58,,,1,No Message,Poke Ball,0,,
Nail,Venonat,,77,,,1,No Message,Poke Ball,0,,
Nail,Pidgey,875,85,,,0,No Message,Poke Ball,0,,
Nail,Pidgey,875,85,,,1,No Message,Poke Ball,0,,
Nail,Krabby,,173,,,1,Great,Poke Ball,0,,
Nail,Clefairy,,42,,,1,No Message,Poke Ball,0,,
Nail,Bayleef,876,156,,,0,No Message,Poke Ball,0,,
Nail,Bayleef,876,156,,,0,No Message,Poke Ball,0,,
Nail,Bayleef,876,156,,,0,Great,Poke Ball,0,,
Nail,Bayleef,876,156,,,0,Nice,Poke Ball,0,,
Nail,Bayleef,876,156,,,0,No Message,Poke Ball,0,,
Nail,Bayleef,876,156,,,0,Nice,Poke Ball,0,,
Nail,Bayleef,876,156,,,0,No Message,Poke Ball,1,,
Nail,Bayleef,876,156,,,0,No Message,Poke Ball,0,,
Nail,Bayleef,876,156,,,0,Nice,Poke Ball,0,,
Nail,Spearow,,130,,,1,No Message,Poke Ball,0,,
Asghar,Pidgey,99911,,,,1,Great,Poke Ball,0,1,
Asghar,Abra,99912,,,,,No Message,Poke Ball,0,1,
Wenbo,Oddish,w002,99,,,1,No Message,Poke Ball,0,,
Asghar,Pidgey,99913,,,,0,No Message,Poke Ball,0,3,
Asghar,Chindou,99914,,,,1,No Message,Poke Ball,0,1,
Asghar,Murkrow,99915,,,,0,No Message,Poke Ball,0,1,
Asghar,Murkrow,99915,,,,0,No Message,Poke Ball,0,2,
Asghar,Pidgey,99916,,,,0,No Message,Poke Ball,0,2,
Asghar,Pidgey,99916,,,,0,No Message,Poke Ball,0,4,
Asghar,Rattata,99917,,,,1,No Message,Poke Ball,0,2,
Asghar,Sentret,99918,,,,1,No Message,Poke Ball,0,1,
Asghar,Natu,99919,,,,0,No Message,Poke Ball,0,1,
Asghar,Natu,99919,,,,0,No Message,Poke Ball,0,1,
Asghar,Natu,99919,,,,0,No Message,Poke Ball,0,1,
Asghar,Natu,99919,,,,0,No Message,Poke Ball,0,1,
Asghar,Natu,99919,,,,0,No Message,Poke Ball,0,1,
Asghar,Natu,99919,,,,0,No Message,Poke Ball,0,1,
Asghar,Natu,99919,,,,1,No Message,Poke Ball,0,1,
Asghar,Natu,99920,,,,1,No Message,Poke Ball,0,1,
Asghar,Sentret,99921,,,,1,No Message,Poke Ball,0,1,
Asghar,Marill,99922,,,,1,Nice,Poke Ball,0,1,
Asghar,Voltorb,99923,,,,1,No Message,Poke Ball,0,1,
Asghar,Sentret,99924,,,,1,Nice,Poke Ball,0,1,
Asghar,Natu,99925,,,,1,No Message,Poke Ball,1,1,
Asghar,Natu,99926,,,,1,No Message,Poke Ball,0,1,
Asghar,Pidgey,99927,,,,1,Great,Poke Ball,0,2,
Asghar,Pidgey,99928,,,,1,Nice,Poke Ball,0,3,
Asghar,Pidgey,99929,,,,0,No Message,Poke Ball,0,1,
Asghar,Pidgey,99929,,,,1,No Message,Poke Ball,0,1,
Asghar,Pidgey,99930,,,,1,No Message,Poke Ball,1,3,
Asghar,Rattata,99931,,,,1,No Message,Poke Ball,0,1,
Asghar,Natu,99932,,,,1,No Message,Poke Ball,0,1,
Asghar,Nidoran,99933,,,,0,No Message,Poke Ball,0,1,
Asghar,Nidoran,99933,,,,1,No Message,Poke Ball,0,1,
Asghar,Pidgey,99934,,,,1,Nice,Poke Ball,0,1,
Asghar,Clefairy,99935,,,,1,Nice,Poke Ball,0,1,
Asghar,Sneasel,99936,,,,1,Great,Poke Ball,1,3,
Asghar,Nidoran,99937,,,,1,No Message,Poke Ball,0,1,
Asghar,Teddiursa,99938,,,,0,No Message,Poke Ball,0,1,
Asghar,Teddiursa,99938,,,,1,No Message,Poke Ball,0,1,
Clayton,Sneasel,CB01,182,,,0,No Message,Poke Ball,0,,
Clayton,Sneasel,CB01,182,,,1,No Message,Poke Ball,0,2,
Clayton,Sabley,CB02,126,,,0,No Message,Poke Ball,0,,
Clayton,Sabley,CB02,126,,,0,No Message,Poke Ball,0,,
Clayton,Sabley,CB02,126,,,0,No Message,Poke Ball,0,,
Clayton,Sabley,CB02,126,,,1,No Message,Poke Ball,1,3,
Clayton,Pidgey,CB03,53,,,1,No Message,Poke Ball,0,3,
Clayton,Eevee,CB04,284,,,1,No Message,Poke Ball,0,3,
Clayton,Eevee,CB04,204,,,0,,Poke Ball,0,,
Clayton,Eevee,CB05,204,,,0,No Message,Poke Ball,0,,
Clayton,Goldbat,CB06,222,,,0,No Message,Poke Ball,0,,
Clayton,Goldbat,CB07,222,,,0,No Message,Poke Ball,0,,
Clayton,Ledyba,CB06,166,,,0,No Message,Poke Ball,0,,
Clayton,Ledyba,CB07,166,,,1,No Message,Poke Ball,0,3,
Clayton,Venonat,CB08,283,,,1,No Message,Poke Ball,0,3,
Clayton,Clefairy,CB09,127,,,1,No Message,Poke Ball,0,3,
Clayton,Mankey,CB10,117,,,1,No Message,Poke Ball,0,3,
Clayton,Phanpy,CB11,47,,,1,No Message,Poke Ball,0,2,
Clayton,Hoothoot,CB12,10,,,1,No Message,Poke Ball,0,3,