\boolfalse {citerequest}\boolfalse {citetracker}\boolfalse {pagetracker}\boolfalse {backtracker}\relax 
\defcounter {refsection}{0}\relax 
\beamer@endinputifotherversion {3.36pt}
\defcounter {refsection}{0}\relax 
\beamer@sectionintoc {1}{Questions}{2}{0}{1}
\defcounter {refsection}{0}\relax 
\beamer@sectionintoc {2}{Methodological Issues}{6}{0}{2}
\defcounter {refsection}{0}\relax 
\beamer@sectionintoc {3}{Strand Findings}{9}{0}{3}
\defcounter {refsection}{0}\relax 
\beamer@sectionintoc {4}{References}{14}{0}{4}
