# Fdb version 3
["pdflatex"] 1512372512 "final.tex" "final.pdf" "final" 1512372513
  "/usr/local/texlive/2016/texmf-dist/fonts/enc/dvips/base/8r.enc" 1165713224 4850 80dc9bab7f31fb78a000ccfed0e27cab ""
  "/usr/local/texlive/2016/texmf-dist/fonts/enc/dvips/cm-super/cm-super-t1.enc" 1136849721 2971 def0b6c1f0b107b3b936def894055589 ""
  "/usr/local/texlive/2016/texmf-dist/fonts/map/fontname/texfonts.map" 1272929888 3287 e6b82fe08f5336d4d5ebc73fb1152e87 ""
  "/usr/local/texlive/2016/texmf-dist/fonts/tfm/adobe/palatino/pplb8r.tfm" 1136768653 2532 9ad73cf4dd2173a847f2a5f5608e0b9a ""
  "/usr/local/texlive/2016/texmf-dist/fonts/tfm/adobe/palatino/pplb9e.tfm" 1136768653 5972 8da11a082fb7b0bb20bdef74c1f36ef8 ""
  "/usr/local/texlive/2016/texmf-dist/fonts/tfm/adobe/palatino/pplr8r.tfm" 1136768653 2796 d37c29814a6717720ee1a7c9a0b2c3b8 ""
  "/usr/local/texlive/2016/texmf-dist/fonts/tfm/adobe/palatino/pplr9c.tfm" 1136768653 1348 f4174868edc712ccb6079f0b57dbcfdf ""
  "/usr/local/texlive/2016/texmf-dist/fonts/tfm/adobe/palatino/pplr9e.tfm" 1136768653 6952 02ad5d201b346d62c53c35f081142949 ""
  "/usr/local/texlive/2016/texmf-dist/fonts/tfm/adobe/palatino/pplr9t.tfm" 1136768653 2284 861e5309a3e09d74071777f716a582cc ""
  "/usr/local/texlive/2016/texmf-dist/fonts/tfm/adobe/palatino/pplrc8r.tfm" 1136768653 3528 0711c6c96865155bce7256fa14ac59b1 ""
  "/usr/local/texlive/2016/texmf-dist/fonts/tfm/adobe/palatino/pplri8r.tfm" 1136768653 2720 70000d5e623e601132eab3cded5b819b ""
  "/usr/local/texlive/2016/texmf-dist/fonts/tfm/adobe/palatino/pplri9e.tfm" 1136768653 4636 04bb79b19bf5315ced00732a1dac5509 ""
  "/usr/local/texlive/2016/texmf-dist/fonts/tfm/adobe/symbol/psyr.tfm" 1136768653 1408 5937f58aa508ea2cea4901c07d10f5fe ""
  "/usr/local/texlive/2016/texmf-dist/fonts/tfm/adobe/zapfding/pzdr.tfm" 1136768653 1528 f853c4d1b4e0550255e02831fdc8496f ""
  "/usr/local/texlive/2016/texmf-dist/fonts/tfm/jknappen/ec/ecrm1000.tfm" 1136768653 3584 adb004a0c8e7c46ee66cad73671f37b4 ""
  "/usr/local/texlive/2016/texmf-dist/fonts/tfm/jknappen/ec/ectt1200.tfm" 1136768653 1536 487c9b46984a816c7ed238d0674595c7 ""
  "/usr/local/texlive/2016/texmf-dist/fonts/tfm/public/amsfonts/symbols/msam10.tfm" 1246382020 916 f87d7c45f9c908e672703b83b72241a3 ""
  "/usr/local/texlive/2016/texmf-dist/fonts/tfm/public/amsfonts/symbols/msbm10.tfm" 1246382020 908 2921f8a10601f252058503cc6570e581 ""
  "/usr/local/texlive/2016/texmf-dist/fonts/tfm/public/cm/cmmi10.tfm" 1136768653 1528 abec98dbc43e172678c11b3b9031252a ""
  "/usr/local/texlive/2016/texmf-dist/fonts/tfm/public/mathpazo/fplmb.tfm" 1136768653 984 3dcde7360ef3d34302e591b511cba83c ""
  "/usr/local/texlive/2016/texmf-dist/fonts/tfm/public/mathpazo/fplmr.tfm" 1136768653 1032 7fa31d93ecd4cbdfac02c7a1ebc6facc ""
  "/usr/local/texlive/2016/texmf-dist/fonts/tfm/public/mathpazo/fplmri.tfm" 1136768653 1148 56b0fdf7ca3f800294e968f64cfdcb87 ""
  "/usr/local/texlive/2016/texmf-dist/fonts/tfm/public/mathpazo/zplmr7m.tfm" 1136768653 2080 40a71f65088bdd047622ce295520749e ""
  "/usr/local/texlive/2016/texmf-dist/fonts/tfm/public/mathpazo/zplmr7t.tfm" 1136768653 1828 bb8add3bd19426549f9267c88b0cb8bd ""
  "/usr/local/texlive/2016/texmf-dist/fonts/tfm/public/mathpazo/zplmr7v.tfm" 1136768653 1012 955c4ca523d7827d33db91a33412b048 ""
  "/usr/local/texlive/2016/texmf-dist/fonts/tfm/public/mathpazo/zplmr7y.tfm" 1136768653 1316 b4037e9c09961a72f8476628774e1ec1 ""
  "/usr/local/texlive/2016/texmf-dist/fonts/tfm/public/rsfs/rsfs10.tfm" 1229303445 688 37338d6ab346c2f1466b29e195316aa4 ""
  "/usr/local/texlive/2016/texmf-dist/fonts/tfm/public/rsfs/rsfs5.tfm" 1229303445 684 3a51bd4fd9600428d5264cf25f04bb9a ""
  "/usr/local/texlive/2016/texmf-dist/fonts/tfm/public/rsfs/rsfs7.tfm" 1229303445 692 1b6510779f0f05e9cbf03e0f6c8361e6 ""
  "/usr/local/texlive/2016/texmf-dist/fonts/type1/public/cm-super/sftt1200.pfb" 1215737283 167085 68de377d2744a68a88fa40a1f610615a ""
  "/usr/local/texlive/2016/texmf-dist/fonts/type1/urw/palatino/uplb8a.pfb" 1136849748 52406 dad2f72863a03727d5f536c64a69c452 ""
  "/usr/local/texlive/2016/texmf-dist/fonts/type1/urw/palatino/uplr8a.pfb" 1136849748 52665 661b1e6b26edb5f50dd491f8a701cb57 ""
  "/usr/local/texlive/2016/texmf-dist/fonts/type1/urw/palatino/uplri8a.pfb" 1136849748 50022 90249cba7e3e4e9845f80328d6f9bd13 ""
  "/usr/local/texlive/2016/texmf-dist/fonts/vf/adobe/palatino/pplb9e.vf" 1136768653 2288 8e238fed018b54574a256cd0062e19b9 ""
  "/usr/local/texlive/2016/texmf-dist/fonts/vf/adobe/palatino/pplr9c.vf" 1136768653 2908 c7a03afe5d67b6476673018447828dc3 ""
  "/usr/local/texlive/2016/texmf-dist/fonts/vf/adobe/palatino/pplr9e.vf" 1136768653 2296 bb1ff9494546688194a48c9b41b39dac ""
  "/usr/local/texlive/2016/texmf-dist/fonts/vf/adobe/palatino/pplri9e.vf" 1136768653 2296 c260490d12463c5a352580ede007bb93 ""
  "/usr/local/texlive/2016/texmf-dist/fonts/vf/public/mathpazo/zplmr7m.vf" 1136768653 1812 de7624743c8bafe2ce204bec2f72ce7e ""
  "/usr/local/texlive/2016/texmf-dist/tex/context/base/mkii/supp-pdf.mkii" 1461363279 71627 94eb9990bed73c364d7f53f960cc8c5b ""
  "/usr/local/texlive/2016/texmf-dist/tex/generic/ifxetex/ifxetex.sty" 1284331290 1458 43ab4710dc82f3edeabecd0d099626b2 ""
  "/usr/local/texlive/2016/texmf-dist/tex/generic/oberdiek/gettitlestring.sty" 1463608860 8237 3b62ef1f7e2c23a328c814b3893bc11f ""
  "/usr/local/texlive/2016/texmf-dist/tex/generic/oberdiek/hobsub-generic.sty" 1463608860 184907 0684df819a7b0db4d40278012ce92791 ""
  "/usr/local/texlive/2016/texmf-dist/tex/generic/oberdiek/hobsub-hyperref.sty" 1463608860 70752 b461cacad0518ee92bfe2446909a53a8 ""
  "/usr/local/texlive/2016/texmf-dist/tex/generic/oberdiek/infwarerr.sty" 1463608860 8253 473e0e41f9adadb1977e8631b8f72ea6 ""
  "/usr/local/texlive/2016/texmf-dist/tex/generic/oberdiek/ltxcmds.sty" 1463608860 18425 5b3c0c59d76fac78978b5558e83c1f36 ""
  "/usr/local/texlive/2016/texmf-dist/tex/generic/pgf/math/pgfmath.code.tex" 1393459310 454 9e9e7c99f4da4f41698be21eaef4938e ""
  "/usr/local/texlive/2016/texmf-dist/tex/generic/pgf/math/pgfmathcalc.code.tex" 1393459310 13416 940ea6971d7a65dc440d3479939c66ae ""
  "/usr/local/texlive/2016/texmf-dist/tex/generic/pgf/math/pgfmathfloat.code.tex" 1439074469 94097 62ac62cda46eb715560dc27f9ed6e8b1 ""
  "/usr/local/texlive/2016/texmf-dist/tex/generic/pgf/math/pgfmathfunctions.base.code.tex" 1393459310 9375 5adc70f722abd29fc250d59e0694b548 ""
  "/usr/local/texlive/2016/texmf-dist/tex/generic/pgf/math/pgfmathfunctions.basic.code.tex" 1439074469 22069 7c21c42b15718ce922f36235be360490 ""
  "/usr/local/texlive/2016/texmf-dist/tex/generic/pgf/math/pgfmathfunctions.code.tex" 1439074469 8210 a7be5b52ef3d2c087b7dc3d52898b67e ""
  "/usr/local/texlive/2016/texmf-dist/tex/generic/pgf/math/pgfmathfunctions.comparison.code.tex" 1288312291 3534 c7f28fbac13616513e513efe93b8569b ""
  "/usr/local/texlive/2016/texmf-dist/tex/generic/pgf/math/pgfmathfunctions.integerarithmetics.code.tex" 1393459310 3167 7c9394e79aac27db96a92f9b2792b858 ""
  "/usr/local/texlive/2016/texmf-dist/tex/generic/pgf/math/pgfmathfunctions.misc.code.tex" 1439074469 9289 261407875b9dbb0194691c3eb893610f ""
  "/usr/local/texlive/2016/texmf-dist/tex/generic/pgf/math/pgfmathfunctions.random.code.tex" 1439074469 7078 946ddf4a7e57219b6afdbad98eb6731b ""
  "/usr/local/texlive/2016/texmf-dist/tex/generic/pgf/math/pgfmathfunctions.round.code.tex" 1288312291 2688 139c6abc86761a6190c2f4bef5d752be ""
  "/usr/local/texlive/2016/texmf-dist/tex/generic/pgf/math/pgfmathfunctions.trigonometric.code.tex" 1439074469 92284 dcf023dbaa84e6c50e11c2f79fe8cfa6 ""
  "/usr/local/texlive/2016/texmf-dist/tex/generic/pgf/math/pgfmathparser.code.tex" 1439074469 35430 046e15fbb65e74d8f0e7945f99741fdb ""
  "/usr/local/texlive/2016/texmf-dist/tex/generic/pgf/math/pgfmathutil.code.tex" 1393459310 7099 f44d505bae6c7c2b933cdd63441db4b9 ""
  "/usr/local/texlive/2016/texmf-dist/tex/generic/pgf/utilities/pgffor.code.tex" 1393459310 22211 d696ef78c12269178882d218b2cf191d ""
  "/usr/local/texlive/2016/texmf-dist/tex/generic/pgf/utilities/pgfkeys.code.tex" 1393459310 36194 e194ef4e0b396b531a3891feb4b1cc22 ""
  "/usr/local/texlive/2016/texmf-dist/tex/generic/pgf/utilities/pgfkeysfiltered.code.tex" 1393459310 33377 af391d6ad1bfcbe2278e191f48e43ba8 ""
  "/usr/local/texlive/2016/texmf-dist/tex/generic/pgf/utilities/pgfutil-common-lists.tex" 1393459310 6833 114eda2cf1d348e0e7e477a1a4dc1941 ""
  "/usr/local/texlive/2016/texmf-dist/tex/generic/pgf/utilities/pgfutil-common.tex" 1439074469 16501 ab0135765e27b6b8dae047831fe84818 ""
  "/usr/local/texlive/2016/texmf-dist/tex/generic/pstricks/pst-fp.tex" 1382486057 23397 b2c7c2d0c0f6db8b08663716c9d4bb46 ""
  "/usr/local/texlive/2016/texmf-dist/tex/generic/pstricks/pstricks.con" 1442011491 14894 d5ca3a7fc3421439753ab847af45ee04 ""
  "/usr/local/texlive/2016/texmf-dist/tex/generic/pstricks/pstricks.tex" 1463694360 135665 71b7a129b797c2efd627a6482ef305bd ""
  "/usr/local/texlive/2016/texmf-dist/tex/generic/unicode-data/CaseFolding.txt" 1449876215 74499 11c335947e5ffa8ac69a3e530b8d2b40 ""
  "/usr/local/texlive/2016/texmf-dist/tex/generic/unicode-data/SpecialCasing.txt" 1449876215 16740 4c17368651bc455636f58c3366bdbbeb ""
  "/usr/local/texlive/2016/texmf-dist/tex/generic/unicode-data/UnicodeData.txt" 1449876215 1621978 3a83069e69e2a9101dc4749593cd3268 ""
  "/usr/local/texlive/2016/texmf-dist/tex/generic/xkeyval/pst-xkey.tex" 1403829539 2369 cef6c7a731680765c6f9543fc756db98 ""
  "/usr/local/texlive/2016/texmf-dist/tex/generic/xkeyval/xkeyval.tex" 1417732693 19231 26434a5656c684f5ffb1f26f98006baa ""
  "/usr/local/texlive/2016/texmf-dist/tex/generic/xkeyval/xkvutils.tex" 1403829539 7677 6f5ce7c1124cad7ec57d05b2562bd8fe ""
  "/usr/local/texlive/2016/texmf-dist/tex/latex/algorithm2e/algorithm2e.sty" 1447109016 164989 3237f4d4426874d9a69857464c581861 ""
  "/usr/local/texlive/2016/texmf-dist/tex/latex/amscls/amsthm.sty" 1428861406 12225 3cca0d18522255979a1047206228b9d0 ""
  "/usr/local/texlive/2016/texmf-dist/tex/latex/amsfonts/amsfonts.sty" 1359763108 5949 3f3fd50a8cc94c3d4cbf4fc66cd3df1c ""
  "/usr/local/texlive/2016/texmf-dist/tex/latex/amsfonts/amssymb.sty" 1359763108 13829 94730e64147574077f8ecfea9bb69af4 ""
  "/usr/local/texlive/2016/texmf-dist/tex/latex/amsmath/amsbsy.sty" 1456875012 2210 5c54ab129b848a5071554186d0168766 ""
  "/usr/local/texlive/2016/texmf-dist/tex/latex/amsmath/amsgen.sty" 1456875012 4160 c115536cf8d4ff25aa8c1c9bc4ecb79a ""
  "/usr/local/texlive/2016/texmf-dist/tex/latex/amsmath/amsmath.sty" 1459635588 82019 58dd7b022876c1d593cd2135c441946d ""
  "/usr/local/texlive/2016/texmf-dist/tex/latex/amsmath/amsopn.sty" 1459635588 4115 318a66090112f3aa3f415aeb6fe8540f ""
  "/usr/local/texlive/2016/texmf-dist/tex/latex/amsmath/amstext.sty" 1456875012 2431 fe3078ec12fc30287f568596f8e0b948 ""
  "/usr/local/texlive/2016/texmf-dist/tex/latex/base/alltt.sty" 1454284088 3140 977eaf314c97ac67b8675753fb15f67f ""
  "/usr/local/texlive/2016/texmf-dist/tex/latex/base/article.cls" 1459635588 19821 310da678527a7dfe2a02c88af38079b7 ""
  "/usr/local/texlive/2016/texmf-dist/tex/latex/base/fontenc.sty" 1454284088 4572 634fcdf7e9df867d6d54f84638930408 ""
  "/usr/local/texlive/2016/texmf-dist/tex/latex/base/ifthen.sty" 1454284088 5159 a08c9bbd48fc492f15b22e458bef961f ""
  "/usr/local/texlive/2016/texmf-dist/tex/latex/base/size10.clo" 1459635588 8292 e897c12e1e886ce77fe26afc5d470886 ""
  "/usr/local/texlive/2016/texmf-dist/tex/latex/base/t1cmtt.fd" 1454284088 2230 5ebc5467205143c6f21bcc41d27910c1 ""
  "/usr/local/texlive/2016/texmf-dist/tex/latex/base/t1enc.def" 1454284088 9927 925418b4e40d02671b4728df100ec5ef ""
  "/usr/local/texlive/2016/texmf-dist/tex/latex/base/textcomp.sty" 1454284088 16155 3b0b2cc7c05e0ccf8c3ce5da21d4bccb ""
  "/usr/local/texlive/2016/texmf-dist/tex/latex/base/ts1cmr.fd" 1454284088 2217 d274654bda1292013bdf48d5f720a495 ""
  "/usr/local/texlive/2016/texmf-dist/tex/latex/base/ts1enc.def" 1454284088 7767 aa88823823f5e767d79ea1166ab1ae74 ""
  "/usr/local/texlive/2016/texmf-dist/tex/latex/breakurl/breakurl.sty" 1365893995 8468 9af34887a0e6e535b004c39238830991 ""
  "/usr/local/texlive/2016/texmf-dist/tex/latex/breqn/breqn.sty" 1439327661 62906 f250b2e15d85f81be47fc7a32b938e17 ""
  "/usr/local/texlive/2016/texmf-dist/tex/latex/breqn/cmbase.sym" 1408833995 16793 3f6ac1963573b47f1571c56ff7fc9696 ""
  "/usr/local/texlive/2016/texmf-dist/tex/latex/breqn/flexisym.sty" 1439327661 17590 d736c3528270878335e3092432a79b85 ""
  "/usr/local/texlive/2016/texmf-dist/tex/latex/breqn/mathstyle.sty" 1439327661 6597 54d87ae423e2abed67f371280c10dacb ""
  "/usr/local/texlive/2016/texmf-dist/tex/latex/chngcntr/chngcntr.sty" 1252025909 4063 effd8d02c8357a7a1b0c045c4e25e292 ""
  "/usr/local/texlive/2016/texmf-dist/tex/latex/doublestroke/dsfont.sty" 1137110062 230 7bc61880b468bfd38aedc173be7c3486 ""
  "/usr/local/texlive/2016/texmf-dist/tex/latex/enumitem/enumitem.sty" 1317339792 42666 6fa770e3485520a6a5f2ea7d259c8f8d ""
  "/usr/local/texlive/2016/texmf-dist/tex/latex/framed/framed.sty" 1338588508 22449 7ec15c16d0d66790f28e90343c5434a3 ""
  "/usr/local/texlive/2016/texmf-dist/tex/latex/geometry/geometry.sty" 1284422013 40502 e003406220954b0716679d7928aedd8a ""
  "/usr/local/texlive/2016/texmf-dist/tex/latex/graphics-cfg/color.cfg" 1459978653 1213 620bba36b25224fa9b7e1ccb4ecb76fd ""
  "/usr/local/texlive/2016/texmf-dist/tex/latex/graphics-cfg/graphics.cfg" 1459978653 3103 f32642b1cd56c010cdfb6545539b7f0b ""
  "/usr/local/texlive/2016/texmf-dist/tex/latex/graphics/color.sty" 1462915952 6883 23a1cf7539666cc26042e9939b5d08c9 ""
  "/usr/local/texlive/2016/texmf-dist/tex/latex/graphics/dvipsnam.def" 1454284088 4945 3b3a8face751255856839a3489e83341 ""
  "/usr/local/texlive/2016/texmf-dist/tex/latex/graphics/graphics.sty" 1462915952 14391 bd64a9e5d07473b936423b5f3280ed2c ""
  "/usr/local/texlive/2016/texmf-dist/tex/latex/graphics/graphicx.sty" 1428932888 8125 557ab9f1bfa80d369fb45a914aa8a3b4 ""
  "/usr/local/texlive/2016/texmf-dist/tex/latex/graphics/keyval.sty" 1428932888 2594 d18d5e19aa8239cf867fa670c556d2e9 ""
  "/usr/local/texlive/2016/texmf-dist/tex/latex/graphics/trig.sty" 1454284088 3980 0a268fbfda01e381fa95821ab13b6aee ""
  "/usr/local/texlive/2016/texmf-dist/tex/latex/hyperref/hpdftex.def" 1462835572 51837 3504c3bd905d546a7e98cebbb2cf6475 ""
  "/usr/local/texlive/2016/texmf-dist/tex/latex/hyperref/hyperref.sty" 1462835572 231855 3b828733a8d4157331c2822d6ca625a9 ""
  "/usr/local/texlive/2016/texmf-dist/tex/latex/hyperref/nameref.sty" 1351899753 12847 25b617d63258c4f72870c883493a3cf8 ""
  "/usr/local/texlive/2016/texmf-dist/tex/latex/hyperref/pd1enc.def" 1462835572 14005 0627be14688b9bcdd822468e0ec3cef1 ""
  "/usr/local/texlive/2016/texmf-dist/tex/latex/hyperref/puenc.def" 1462835572 122263 6a1b4e16f1c5056ee6f95bc49f154619 ""
  "/usr/local/texlive/2016/texmf-dist/tex/latex/jknapltx/mathrsfs.sty" 1137110241 300 12fa6f636b617656f2810ee82cb05015 ""
  "/usr/local/texlive/2016/texmf-dist/tex/latex/jknapltx/ursfs.fd" 1137110241 548 cc4e3557704bfed27c7002773fad6c90 ""
  "/usr/local/texlive/2016/texmf-dist/tex/latex/l3kernel/expl3-code.tex" 1463608779 689679 e146572371041b15f7f0cb49a6cbc969 ""
  "/usr/local/texlive/2016/texmf-dist/tex/latex/l3kernel/expl3.sty" 1463608779 10238 47b1600390b6a09ec63fa44b042e9805 ""
  "/usr/local/texlive/2016/texmf-dist/tex/latex/l3kernel/l3pdfmode.def" 1463608779 9817 2a0e97b2721dcf8bb2bb608e1d600374 ""
  "/usr/local/texlive/2016/texmf-dist/tex/latex/latexconfig/epstopdf-sys.cfg" 1279039959 678 4792914a8f45be57bb98413425e4c7af ""
  "/usr/local/texlive/2016/texmf-dist/tex/latex/latexconfig/hyperref.cfg" 1254097189 235 6031e5765137be07eed51a510b2b8fb7 ""
  "/usr/local/texlive/2016/texmf-dist/tex/latex/oberdiek/auxhook.sty" 1463608860 3834 4363110eb0ef1eb2b71c8fcbcdb6c357 ""
  "/usr/local/texlive/2016/texmf-dist/tex/latex/oberdiek/epstopdf-base.sty" 1463608860 12095 5337833c991d80788a43d3ce26bd1c46 ""
  "/usr/local/texlive/2016/texmf-dist/tex/latex/oberdiek/epstopdf.sty" 1463608860 4167 fc50b4e5b185008bb9308b1ea4ce64d4 ""
  "/usr/local/texlive/2016/texmf-dist/tex/latex/oberdiek/grfext.sty" 1463608860 7075 2fe3d848bba95f139de11ded085e74aa ""
  "/usr/local/texlive/2016/texmf-dist/tex/latex/oberdiek/kvoptions.sty" 1463608860 22417 1d9df1eb66848aa31b18a593099cf45c ""
  "/usr/local/texlive/2016/texmf-dist/tex/latex/oberdiek/rerunfilecheck.sty" 1463608860 9581 023642318cef9f4677efe364de1e2a27 ""
  "/usr/local/texlive/2016/texmf-dist/tex/latex/pdftex-def/pdftex.def" 1306616590 55368 3c8a0d99822330f2dfabc0dfb09ce897 ""
  "/usr/local/texlive/2016/texmf-dist/tex/latex/psnfss/mathpazo.sty" 1156702453 8977 7001b1ab94674ce4a6004aef2826ec90 ""
  "/usr/local/texlive/2016/texmf-dist/tex/latex/psnfss/omlzplm.fd" 1137110629 638 2349dd185efcefd0c3380a2601df0cee ""
  "/usr/local/texlive/2016/texmf-dist/tex/latex/psnfss/omszplm.fd" 1137110629 455 c09241d92b40b1b84eb2bb5776606aea ""
  "/usr/local/texlive/2016/texmf-dist/tex/latex/psnfss/omxzplm.fd" 1137110629 322 fb88cb3e5f25cf1596ba8826c4210e0e ""
  "/usr/local/texlive/2016/texmf-dist/tex/latex/psnfss/ot1pplx.fd" 1137110629 869 d5724c6202887be8690c71fe9df2f441 ""
  "/usr/local/texlive/2016/texmf-dist/tex/latex/psnfss/ot1zplm.fd" 1137110629 436 5e7baa1a259bab50a2bdffad6426f38c ""
  "/usr/local/texlive/2016/texmf-dist/tex/latex/psnfss/pifont.sty" 1156702453 2284 330328193b4aeb08dd45b0dd3e5ae732 ""
  "/usr/local/texlive/2016/texmf-dist/tex/latex/psnfss/t1pplx.fd" 1137110629 678 c8b3ffad3ca2f0b681099c1471d12d8b ""
  "/usr/local/texlive/2016/texmf-dist/tex/latex/psnfss/ts1pplx.fd" 1137110629 634 ff560c0872a0a3a55298084c3a3cbc8f ""
  "/usr/local/texlive/2016/texmf-dist/tex/latex/psnfss/upsy.fd" 1137110629 148 2da0acd77cba348f34823f44cabf0058 ""
  "/usr/local/texlive/2016/texmf-dist/tex/latex/psnfss/upzd.fd" 1137110629 148 b2a94082cb802f90d3daf6dd0c7188a0 ""
  "/usr/local/texlive/2016/texmf-dist/tex/latex/pstricks/pstricks.sty" 1447630674 6963 c30468ef5fcfb0c3f15268ed9eed3a53 ""
  "/usr/local/texlive/2016/texmf-dist/tex/latex/relsize/relsize.sty" 1369619135 15542 c4cc3164fe24f2f2fbb06eb71b1da4c4 ""
  "/usr/local/texlive/2016/texmf-dist/tex/latex/tools/calc.sty" 1454284088 10214 d03d065f799d54f6b7e9b175f8d84279 ""
  "/usr/local/texlive/2016/texmf-dist/tex/latex/tools/verbatim.sty" 1454284088 7264 cf839ee7f0c2bfc711b0b88970764569 ""
  "/usr/local/texlive/2016/texmf-dist/tex/latex/tools/xspace.sty" 1454284088 4544 8b8f59969458e1c25e0559e8e0ced1a4 ""
  "/usr/local/texlive/2016/texmf-dist/tex/latex/upquote/upquote.sty" 1334873510 1048 517e01cde97c1c0baf72e69d43aa5a2e ""
  "/usr/local/texlive/2016/texmf-dist/tex/latex/url/url.sty" 1388531844 12796 8edb7d69a20b857904dd0ea757c14ec9 ""
  "/usr/local/texlive/2016/texmf-dist/tex/latex/xcolor/xcolor.sty" 1463002160 55589 34128738f682d033422ca125f82e5d62 ""
  "/usr/local/texlive/2016/texmf-dist/tex/latex/xkeyval/xkeyval.sty" 1417732693 4962 9c1069474ff71dbc47d5006555e352d3 ""
  "/usr/local/texlive/2016/texmf-dist/web2c/texmf.cnf" 1463093894 31953 b9489e6e586f798610c60aec1f5ec548 ""
  "/usr/local/texlive/2016/texmf-var/fonts/map/pdftex/updmap/pdftex.map" 1488087314 1888048 f2c5faed5981a516f406b2ccc20bff71 ""
  "/usr/local/texlive/2016/texmf-var/web2c/pdftex/pdflatex.fmt" 1463979169 3873397 413fbfbbedb8e719ddc392043a7add02 ""
  "/usr/local/texlive/2016/texmf.cnf" 1463979140 577 2938757e76f31531e65cc647e3507693 ""
  "final.aux" 1512372513 662 b2b94621371df8d9296b8bf5bec1b851 ""
  "final.out" 1512372512 0 d41d8cd98f00b204e9800998ecf8427e ""
  "final.tex" 1512372511 19493 6db25c9a61d3e1f62d553ac4f7b04bca ""
  "preamble2.tex" 1509940982 4823 9a0dfe8cae087d76e16bdb1b784edba0 ""
  (generated)
  "final.log"
  "preamble2.aux"
  "final.out"
  "final.pdf"
  "final.aux"
